%YAML 1.1
%TAG !u! tag:unity3d.com,2011:
--- !u!162 &1
EditorUserSettings:
  m_ObjectHideFlags: 0
  serializedVersion: 4
  m_ConfigSettings:
    RecentlyUsedScenePath-0:
      value: 22424703114646680e0b0227036c7c021313113e3f66333e243d04
      flags: 0
    RecentlyUsedScenePath-1:
      value: 22424703114646680e0b0227036c771905031738357a68252320092a
      flags: 0
    RecentlyUsedScenePath-2:
      value: 22424703114646680e0b0227036c7719050317383566333e243d04
      flags: 0
    RecentlyUsedScenePath-3:
      value: 22424703114646680e0b0227036c72151802563f22213229
      flags: 0
    RecentlyUsedScenePath-4:
      value: 22424703114646680e0b0227036c771905031738357b68252320092a
      flags: 0
    RecentlyUsedScenePath-5:
      value: 22424703114646680e0b0227036c78111b12563f22213229
      flags: 0
    vcSharedLogLevel:
      value: 0d5e400f0650
      flags: 0
  m_VCAutomaticAdd: 1
  m_VCDebugCom: 0
  m_VCDebugCmd: 0
  m_VCDebugOut: 0
  m_SemanticMergeMode: 2
  m_VCShowFailedCheckout: 1
  m_VCOverwriteFailedCheckoutAssets: 1
  m_VCProjectOverlayIcons: 1
  m_VCHierarchyOverlayIcons: 1
  m_VCOtherOverlayIcons: 1
  m_VCAllowAsyncUpdate: 1
